<?xml version="1.0" encoding="UTF-8"?>
<Project>
   <description></description>
   <name>Nightlybuild</name>
   <tag></tag>
   <UUID>30747e2a-30b6-4cc7-b5bd-57f24d8fdd9f</UUID>
   <migratedVersion>5.4.0</migratedVersion>
   <pageLoadTimeout>0</pageLoadTimeout>
</Project>
